<?xml version="1.0" encoding="utf-8"?>
<!-- Generator: Adobe Illustrator 24.2.1, SVG Export Plug-In . SVG Version: 6.00 Build 0)  -->
<svg version="1.1" id="圖層_1" xmlns="http://www.w3.org/2000/svg" xmlns:xlink="http://www.w3.org/1999/xlink" x="0px" y="0px"
	 viewBox="0 0 110 83" style="enable-background:new 0 0 110 83;" xml:space="preserve">
<style type="text/css">
	.st0{fill:none;stroke:#3AA9FF;stroke-width:6;stroke-linecap:round;stroke-linejoin:round;stroke-miterlimit:10;}
	.st1{fill:#3AA9FF;}
</style>
<path class="st0" d="M84.2,61.7c8.3-15.3,2.9-35.4-11.9-44.6"/>
<path class="st0" d="M24.7,60.8C33,77.3,54.3,84,70.6,75.3"/>
<path class="st0" d="M55.2,12.2c-17.4,0-32.7,13.6-34,31.1"/>
<circle class="st1" cx="54.7" cy="12.3" r="10.6"/>
<circle class="st1" cx="84.4" cy="61.9" r="10.6"/>
<circle class="st1" cx="25.6" cy="61.9" r="10.6"/>
</svg>
