<?xml version="1.0" encoding="utf-8"?>
<!-- Generator: Adobe Illustrator 24.2.1, SVG Export Plug-In . SVG Version: 6.00 Build 0)  -->
<svg version="1.1" id="圖層_1" xmlns="http://www.w3.org/2000/svg" xmlns:xlink="http://www.w3.org/1999/xlink" x="0px" y="0px"
	 viewBox="0 0 24 24" style="enable-background:new 0 0 24 24;" xml:space="preserve">
<style type="text/css">
	.st0{fill:none;stroke:#FFCF01;stroke-width:2;stroke-linecap:round;stroke-linejoin:round;}
	.st1{fill:none;stroke:#003CE8;stroke-width:2;stroke-linecap:round;stroke-linejoin:round;stroke-miterlimit:10;}
	.st2{fill:none;stroke:url(#SVGID_1_);stroke-width:2;stroke-linecap:round;stroke-linejoin:round;stroke-miterlimit:10;}
	.st3{fill:none;stroke:url(#SVGID_2_);stroke-width:2;stroke-linecap:round;stroke-linejoin:round;stroke-miterlimit:10;}
	.st4{fill:none;stroke:url(#SVGID_3_);stroke-width:2;stroke-linecap:round;stroke-linejoin:round;stroke-miterlimit:10;}
	.st5{fill:none;stroke:url(#SVGID_4_);stroke-width:2;stroke-linecap:round;stroke-linejoin:round;stroke-miterlimit:10;}
</style>
<path class="st0" d="M9.2,15H2.8C2.4,15,2,14.6,2,14.2V9.8C2,9.4,2.4,9,2.8,9h6.4C9.6,9,10,9.4,10,9.8v4.5C10,14.7,9.7,15,9.2,15z"
	/>
<path class="st1" d="M21.2,15h-6.4c-0.4,0-0.8-0.4-0.8-0.8V9.8C14,9.4,14.4,9,14.8,9h6.4C21.6,9,22,9.4,22,9.8v4.5
	C22,14.7,21.7,15,21.2,15z"/>
<linearGradient id="SVGID_1_" gradientUnits="userSpaceOnUse" x1="18" y1="1077.9445" x2="18" y2="1071" gradientTransform="matrix(1 0 0 1 0 -1054)">
	<stop  offset="0.1" style="stop-color:#003CE8;stop-opacity:0"/>
	<stop  offset="1" style="stop-color:#003CE8"/>
</linearGradient>
<path class="st2" d="M14,23v-4.2c0-0.4,0.4-0.8,0.8-0.8h6.4c0.4,0,0.8,0.4,0.8,0.8V23"/>
<linearGradient id="SVGID_2_" gradientUnits="userSpaceOnUse" x1="6" y1="1077.9445" x2="6" y2="1071" gradientTransform="matrix(1 0 0 1 0 -1054)">
	<stop  offset="0.1" style="stop-color:#003CE8;stop-opacity:0"/>
	<stop  offset="1" style="stop-color:#003CE8"/>
</linearGradient>
<path class="st3" d="M2,23v-4.2C2,18.4,2.4,18,2.8,18h6.4c0.4,0,0.8,0.4,0.8,0.8V23"/>
<linearGradient id="SVGID_3_" gradientUnits="userSpaceOnUse" x1="-3770" y1="-1044.75" x2="-3770" y2="-1051.6945" gradientTransform="matrix(-1 0 0 -1 -3764 -1044.75)">
	<stop  offset="0.1" style="stop-color:#003CE8;stop-opacity:0"/>
	<stop  offset="1" style="stop-color:#003CE8"/>
</linearGradient>
<path class="st4" d="M10,1v4.2C10,5.6,9.6,6,9.2,6H2.8C2.4,6,2,5.6,2,5.2V1"/>
<linearGradient id="SVGID_4_" gradientUnits="userSpaceOnUse" x1="-3782" y1="-1044.75" x2="-3782" y2="-1051.6945" gradientTransform="matrix(-1 0 0 -1 -3764 -1044.75)">
	<stop  offset="0.1" style="stop-color:#003CE8;stop-opacity:0"/>
	<stop  offset="1" style="stop-color:#003CE8"/>
</linearGradient>
<path class="st5" d="M22,1v4.2C22,5.6,21.6,6,21.2,6h-6.4C14.4,6,14,5.6,14,5.2V1"/>
</svg>
