<?xml version="1.0" encoding="utf-8"?>
<!-- Generator: Adobe Illustrator 24.1.3, SVG Export Plug-In . SVG Version: 6.00 Build 0)  -->
<svg version="1.1" id="圖層_1" xmlns="http://www.w3.org/2000/svg" xmlns:xlink="http://www.w3.org/1999/xlink" x="0px" y="0px"
	 viewBox="0 0 24 24" style="enable-background:new 0 0 24 24;" xml:space="preserve">
<style type="text/css">
	.st0{fill:#FFFFFF;stroke:#3AA9FF;stroke-width:1.5;stroke-linecap:round;stroke-linejoin:round;}
	.st1{fill:#E6F8FF;}
	.st2{fill:none;stroke:#FFCF01;stroke-width:1.5;stroke-linecap:round;stroke-linejoin:round;}
</style>
<g>
	<g>
		<path class="st0" d="M16,15v4.5c0,0.5-0.5,1-1,1H4c-0.5,0-1-0.5-1-1v-15c0-0.6,0.5-1,1-1h11c0.5,0,1,0.4,1,1V9"/>
	</g>
	<g>
		<path class="st1" d="M5.4,5.2h8.3c0.4,0,0.8,0.3,0.8,0.8v12c0,0.4-0.4,0.8-0.8,0.8H5.4c-0.4,0-0.8-0.4-0.8-0.8V6
			C4.6,5.5,5,5.2,5.4,5.2z"/>
	</g>
</g>
<line class="st2" x1="20.7" y1="12" x2="9.5" y2="12"/>
<polyline class="st2" points="18.7,8.6 22.1,12 18.7,15.4 "/>
</svg>
