<?xml version="1.0" encoding="utf-8"?>
<!-- Generator: Adobe Illustrator 24.1.3, SVG Export Plug-In . SVG Version: 6.00 Build 0)  -->
<svg version="1.1" id="圖層_1" xmlns="http://www.w3.org/2000/svg" xmlns:xlink="http://www.w3.org/1999/xlink" x="0px" y="0px"
	 viewBox="0 0 110 83" style="enable-background:new 0 0 110 83;" xml:space="preserve">
<style type="text/css">
	.st0{fill:#FFCF01;}
	.st1{fill:none;stroke:#FFCF01;stroke-width:6;stroke-linecap:round;stroke-linejoin:round;stroke-miterlimit:10;}
</style>
<g>
	<circle class="st0" cx="40.4" cy="71.4" r="6.2"/>
	<circle class="st0" cx="72.4" cy="71.4" r="6.2"/>
	<path class="st1" d="M40,19.8h50.6L82,58.3C81.7,60,80.3,61,78.6,61H34.2c-1.7,0-3.4-1.4-3.4-3.1L27.7,9.4h-8.3"/>
</g>
</svg>
