<?xml version="1.0" encoding="utf-8"?>
<!-- Generator: Adobe Illustrator 23.0.2, SVG Export Plug-In . SVG Version: 6.00 Build 0)  -->
<svg version="1.1" id="splash" xmlns="http://www.w3.org/2000/svg" xmlns:xlink="http://www.w3.org/1999/xlink" x="0px" y="0px"
	 viewBox="0 0 300 300" style="enable-background:new 0 0 300 300;" xml:space="preserve">
<path style="fill:#6A3906;" d="M300,150c0,82.8-67.2,150-150,150C67.1,300,0,232.8,0,150S67.1,0,150,0C232.8,0,300,67.1,300,150z"/>
<path style="fill:#FFFFFF;" d="M222.4,275.1c0.3,1.5,0.7,3.4,1.2,5.6C201.9,293,176.8,300,150,300c-19.8,0-38.7-3.8-56-10.8
	c3.1-7.7,4.2-13.6,4.6-16.8c0-1,0.1-2.1,0.2-3.2c0,0,0-0.1,0-0.1c0-0.1,0-0.3,0.1-0.4c2.1-22.4,16.1-40.9,35.6-49.7
	c-6.9-10.9-7.2-18.9-6.1-23.9c1.3-5.5,4.9-9.9,10.4-12.6c1.5-0.7,3-1.1,4.5-1.1c7.4,0,11.4,9.4,13.5,17.9c1.3-3,3.5-5.4,7.2-5.8
	c2.3-0.3,4.3,0.5,5.8,2.1c2.5,2.7,3.2,7.6,3.4,11.4c1.3-0.7,2.9-0.9,4.5-0.3c3.5,1.4,4.7,7.2,5.1,10.8c23.2,8.8,39.8,31,39.8,56.8
	c0,0.2,0,0.4,0,0.6L222.4,275.1z M215.1,99l4.3-8.7l-7.9-5.7l2.1-9.5l-9-3.6l-0.2-9.7l-9.6-1.4l-2.5-9.3l-9.6,0.9l-4.7-8.5l-9.1,3.2
	l-6.6-7.1l-8.1,5.3l-8.1-5.3l-6.6,7.1l-9.1-3.2l-4.7,8.5l-9.7-0.9l-2.5,9.3l-9.6,1.4l-0.2,9.7l-9,3.6l2.1,9.5l-7.8,5.7l4.3,8.7
	l-6.3,7.4l6.3,7.4l-4.3,8.7l7.8,5.7l-2.1,9.5l9,3.6l0.2,9.7l9.6,1.4l2.5,9.3l9.7-0.9l4.7,8.5l9.2-3.2l6.6,7.1l8.1-5.3l8.1,5.3
	l6.6-7.1l9.1,3.2l4.7-8.5l9.6,0.9l2.5-9.4l9.6-1.4l0.2-9.7l9-3.6l-2.1-9.5l7.9-5.7l-4.3-8.7l6.3-7.4L215.1,99z M209.7,106.4
	c0,30.6-24.9,55.5-55.5,55.5c-30.6,0-55.5-24.9-55.5-55.5c0-30.6,24.9-55.5,55.5-55.5C184.8,50.9,209.7,75.8,209.7,106.4z
	 M204.1,106.4c0-27.5-22.4-49.9-49.9-49.9s-49.9,22.4-49.9,49.9c0,27.5,22.4,49.9,49.9,49.9S204.1,133.9,204.1,106.4z M150,73.3h3.4
	v66.2H150v-4.4c-10.2-0.7-20.2-4.9-21.5-16.5l16.5-1.9c0,0,0.2,5.6,5,7.7v-13.2c-9.8-2.4-19.7-5.9-19.3-17.8
	c0.4-10.6,9.6-15,19.3-16V73.3z M150,88.1c-4.6,1.6-5.2,6.1-0.9,8.3c0.3,0.1,0.6,0.3,1,0.4L150,88.1z M171.3,131.4
	c-2.7,1.6-7.7,3.1-13.4,3.6v4.6h-2.8V73.3h2.8v4.2c10.5,0.9,18.2,5.8,20.1,13.2l-16,2.6c0,0-0.7-3.3-4.1-4.9v10.7
	c5.6,1.4,12.3,3.4,17.3,7.7C183.3,114,179.8,126.2,171.3,131.4z M163.8,118.3c-0.6-2.2-2-3.5-5.9-4.9v11.5
	C162.7,123.9,164.6,121,163.8,118.3z"/>
</svg>
