<svg xmlns="http://www.w3.org/2000/svg" viewBox="0 0 160 120" xmlns:v="https://vecta.io/nano">
    <style>.rocket {animation-name: rocketMoves;animation-duration: 1s;animation-iteration-count: infinite;}@keyframes rocketMoves {0% {transform: translate(0, -5px);}50% {transform: translate(0, 0);}100% {transform: translate(0, -5px);}}</style>
    <linearGradient id="A" gradientUnits="userSpaceOnUse" x1="80.45" y1="120" x2="80.45" y2="84"><stop offset="0" stop-color="#fff" /><stop offset="1" stop-color="#d9d9d9" /></linearGradient>
    <path d="M160 120c-14.1-21.3-44.5-36-79.6-36S15 98.7.9 120" fill="url(#A)" />
    <path d="M38.7 108.8h0c-1.3 0-2.4-1.1-2.4-2.4v-6.3c0-1.3 1.1-2.4 2.4-2.4h0c1.3 0 2.4 1.1 2.4 2.4v6.3c0 1.4-1.1 2.4-2.4 2.4z" fill="#ccc" />
    <path d="M47.3 92.4c0 7.2-3.8 9.5-8.5 9.5s-8.5-2.3-8.5-9.5 3.8-16.6 8.5-16.6 8.5 9.4 8.5 16.6z" fill="#999" />
    <path d="M122.7 99h0a1.54 1.54 0 0 1-1.5-1.5v-4.1a1.54 1.54 0 0 1 1.5-1.5h0a1.54 1.54 0 0 1 1.5 1.5v4.1a1.54 1.54 0 0 1-1.5 1.5z" fill="#ccc" />
    <path d="M128.2 88.2c0 4.7-2.5 6.2-5.6 6.2s-5.6-1.5-5.6-6.2 2.5-10.8 5.6-10.8 5.6 6.1 5.6 10.8z" fill="#999" />
    <circle cx="25.1" cy="45.9" r="5.3" fill="#ccc" />
    <circle cx="55.5" cy="26.8" r="4.6" fill="none" stroke="#e6e6e6" stroke-width="1.984" stroke-linejoin="round" />
    <circle cx="136.9" cy="55.8" r="3.3" fill="#e6e6e6" />
    <g fill="#ccc"> <circle cx="155.4" cy="46" r="1.3" /> <circle cx="2" cy="55.8" r="2" /></g>
    <g fill="none"><g stroke="#e6e6e6" stroke-width="3.967" stroke-linecap="round" stroke-miterlimit="10"> <path d="M105.8 26.1h7.9" /> <path d="M109.8 22.1v8" /></g><path d="M84 3.6v1.5m-3-.7l.7 1.3m-2.9.9l1.3.7M78 9.6h1.5m-.7 2.9l1.3-.7m.9 2.9l.7-1.3m2.3 2.1V14m2.9.7l-.7-1.3m2.9-.9l-1.3-.7m2.1-2.2h-1.5m.7-3l-1.3.7m-.9-2.9l-.7 1.3" stroke-linecap="round" stroke-miterlimit="10" stroke="#ccc" stroke-width="1.322" /></g>
    <g class="rocket">
			<path d="M80.3 31.8S67.8 41.8 67.8 53v16.8c0 1.7 1.3 3 3 3h19c1.7 0 3-1.3 3-3V53c0-11.2-12.5-21.2-12.5-21.2z" fill="#e6e6e6" />
			<path d="M86.8 78.8h-13c-1.7 0-3-1.3-3-3v-3h19v3a3.01 3.01 0 0 1-3 3z" fill="#ccc" />
			<circle cx="80.3" cy="51.8" r="7" fill="gray" />
			<g fill="#ccc"><path d="M77.8 60.3h5v15h-5z" stroke="#e6e6e6" stroke-width="1.5" stroke-linejoin="round" stroke-miterlimit="10" /><path d="M61.8 59.2l6-3.4v14l-4 2.3c-1.3.8-3-.2-3-1.7V61c-.1-.7.3-1.4 1-1.8zm36.9 0l-6-3.4v14l4 2.3c1.3.8 3-.2 3-1.7V61c.1-.7-.3-1.4-1-1.8z" /></g>
			<path d="M88.5 89.3a8.24 8.24 0 0 0-8.2-8.2c-4.5 0-8.3 3.6-8.3 8.2 0 1.7.5 3.4 1.5 4.7h0l6.8 10.6L87 94c.9-1.3 1.5-3 1.5-4.7z" fill="#003ce8" />
			<path d="M84.2 88.1a3.84 3.84 0 0 0-3.9-3.9 3.84 3.84 0 0 0-3.9 3.9c0 .8.3 1.6.7 2.2h0l3.2 5 3.2-5c.4-.6.7-1.3.7-2.2z" fill="#fff" />
    </g>
</svg>